INDEX VERSION 1.4+/home/labasky/eclipse-workspace/.metadata/.plugins/org.eclipse.wst.jsdt.core/indexes
2355757931.index
2196077479.index
3045247744.index
1418743398.index
2345337315.index
1116958570.index
