<?xml version="1.0" encoding="UTF-8"?>
<session version="1.0">
<refactoring comment="Delete resource &apos;hello-eight-basic&apos;" deleteContents="true" description="Delete resource &apos;hello-eight-basic&apos;" element1="/hello-eight-basic" flags="7" id="org.eclipse.ltk.core.refactoring.delete.resources" resources="1" stamp="1538504823838"/>
</session>